xpdev_analysis_breakaway
…
#The observed richness does not seem correlated to sequencing depth, especially true regarding the premetamorph samples that were more deeply sequenced

#Nevertheless, we will use breakaway to estimate richness at the species level because it provides a proper measurement of errors 
ba_dev_richness <- breakaway(physeq.ini)

#Having a look at the estimated richness
summary_ba_dev_richness<-summary(ba_dev_richness) %>% add_column("SampleNames" = physeq.ini %>% otu_table %>% sample_names)
summary_ba_dev_richness

## # A tibble: 33 x 8
##    estimate  error lower upper sample_names name      model          SampleNames
##       <dbl>  <dbl> <dbl> <dbl> <chr>        <chr>     <chr>          <chr>      
##  1     139.   9.70  125.  364. XT1A2G       breakaway Negative Bino XT1A2G     
##  2     199. 107.    150. 4985. XT1A4G       breakaway Kemp           XT1A4G     
##  3     149.   8.57  124.  378. XT1A5G       breakaway Kemp           XT1A5G     
##  4     202.   9.96  169.  513. XT1B1G       breakaway Kemp           XT1B1G     
##  5     197.   7.53  178.  373. XT1B2G       breakaway Kemp           XT1B2G     
##  6     150.   4.89  142.  226. XT1B2Gbis    breakaway Negative Bino XT1B2Gbis  
##  7     207.  66.1   178. 2505. XT1B4G       breakaway Kemp           XT1B4G     
##  8     203.  36.8   178. 1477. XT1B5G       breakaway Kemp           XT1B5G     
##  9     218.  26.4   162. 1503. XTLS1        breakaway Negative Bino XTLS1      
## 10     190.  16.9   149.  860. XTLS10       breakaway Negative Bino XTLS10     
## #  with 23 more rows
…
